<?xml version="1.0" encoding="UTF-8" standalone="no"?>
<!DOCTYPE svg PUBLIC "-//W3C//DTD SVG 1.1//EN"
 "http://www.w3.org/Graphics/SVG/1.1/DTD/svg11.dtd">
<!-- Generated by graphviz version 2.26.3 (20100126.1600)
 -->
<!-- Title: G Pages: 1 -->
<svg width="128pt" height="244pt"
 viewBox="0.00 0.00 128.00 244.00" xmlns="http://www.w3.org/2000/svg" xmlns:xlink="http://www.w3.org/1999/xlink">
<g id="graph1" class="graph" transform="scale(1 1) rotate(0) translate(4 240)">
<title>G</title>
<polygon fill="white" stroke="white" points="-4,5 -4,-240 125,-240 125,5 -4,5"/>
<g id="graph2" class="cluster"><title>cluster_Crunch</title>
<polyline fill="none" stroke="gray" points="20,-8 100,-8 "/>
<path fill="none" stroke="gray" d="M100,-8C106,-8 112,-14 112,-20"/>
<polyline fill="none" stroke="gray" points="112,-20 112,-216 "/>
<path fill="none" stroke="gray" d="M112,-216C112,-222 106,-228 100,-228"/>
<polyline fill="none" stroke="gray" points="100,-228 20,-228 "/>
<path fill="none" stroke="gray" d="M20,-228C14,-228 8,-222 8,-216"/>
<polyline fill="none" stroke="gray" points="8,-216 8,-20 "/>
<path fill="none" stroke="gray" d="M8,-20C8,-14 14,-8 20,-8"/>
<text text-anchor="middle" x="60" y="-214.1" font-family="Times Roman,serif" font-size="11.00" fill="gray">Crunch</text>
</g>
<g id="graph3" class="cluster"><title>cluster_Crunch\Inotify</title>
<polyline fill="none" stroke="gray" points="28,-16 92,-16 "/>
<path fill="none" stroke="gray" d="M92,-16C98,-16 104,-22 104,-28"/>
<polyline fill="none" stroke="gray" points="104,-28 104,-186 "/>
<path fill="none" stroke="gray" d="M104,-186C104,-192 98,-198 92,-198"/>
<polyline fill="none" stroke="gray" points="92,-198 28,-198 "/>
<path fill="none" stroke="gray" d="M28,-198C22,-198 16,-192 16,-186"/>
<polyline fill="none" stroke="gray" points="16,-186 16,-28 "/>
<path fill="none" stroke="gray" d="M16,-28C16,-22 22,-16 28,-16"/>
<text text-anchor="middle" x="60" y="-184.1" font-family="Times Roman,serif" font-size="11.00" fill="gray">Inotify</text>
</g>
<!-- \\Crunch\\Inotify\\Receiver -->
<g id="node3" class="node"><title>\\Crunch\\Inotify\\Receiver</title>
<a xlink:href="Receiver.html" xlink:title="Receiver" target="_parent">
<polygon fill="none" stroke="black" points="95,-168 25,-168 25,-132 95,-132 95,-168"/>
<text text-anchor="middle" x="60" y="-147.1" font-family="Courier,monospace" font-size="11.00">Receiver</text>
</a>
</g>
<!-- \\Crunch\\Inotify\\Handler -->
<g id="node4" class="node"><title>\\Crunch\\Inotify\\Handler</title>
<a xlink:href="Handler.html" xlink:title="Handler" target="_parent">
<polygon fill="none" stroke="black" points="92,-114 28,-114 28,-78 92,-78 92,-114"/>
<text text-anchor="middle" x="60" y="-93.1" font-family="Courier,monospace" font-size="11.00">Handler</text>
</a>
</g>
<!-- \\Crunch\\Inotify\\Event -->
<g id="node5" class="node"><title>\\Crunch\\Inotify\\Event</title>
<a xlink:href="Event.html" xlink:title="Event" target="_parent">
<polygon fill="none" stroke="black" points="87,-60 33,-60 33,-24 87,-24 87,-60"/>
<text text-anchor="middle" x="60" y="-39.1" font-family="Courier,monospace" font-size="11.00">Event</text>
</a>
</g>
</g>
</svg>
